EESchema Schematic File Version 4
EELAYER 30 0
EELAYER END
$Descr A4 11693 8268
encoding utf-8
Sheet 1 1
Title "Constant-current Load"
Date "2021-09-29"
Rev "0"
Comp "Jacek Łysiak"
Comment1 ""
Comment2 ""
Comment3 ""
Comment4 ""
$EndDescr
$Comp
L Regulator_Linear:L78L12_SOT89 U1
U 1 1 6154ED63
P 2350 1450
F 0 "U1" H 2350 1692 50  0000 C CNN
F 1 "DI78L12UAB-DIO" H 2350 1601 50  0000 C CNN
F 2 "Package_TO_SOT_SMD:SOT-89-3_Handsoldering" H 2350 1675 50  0001 C CIN
F 3 "https://www.onsemi.cn/PowerSolutions/document/MC7800-D.PDF" H 2350 1400 50  0001 C CNN
	1    2350 1450
	1    0    0    -1  
$EndComp
$Comp
L Connector:Screw_Terminal_01x02 J1
U 1 1 61550E18
P 1250 1550
F 0 "J1" H 1168 1225 50  0000 C CNN
F 1 "CTRL_POWER" H 1168 1316 50  0000 C CNN
F 2 "TerminalBlock:TerminalBlock_bornier-2_P5.08mm" H 1250 1550 50  0001 C CNN
F 3 "~" H 1250 1550 50  0001 C CNN
	1    1250 1550
	-1   0    0    1   
$EndComp
$Comp
L Device:CP1_Small C1
U 1 1 61552078
P 1750 1650
F 0 "C1" H 1841 1696 50  0000 L CNN
F 1 "10u" H 1841 1605 50  0000 L CNN
F 2 "Capacitor_SMD:C_0805_2012Metric_Pad1.18x1.45mm_HandSolder" H 1750 1650 50  0001 C CNN
F 3 "~" H 1750 1650 50  0001 C CNN
	1    1750 1650
	1    0    0    -1  
$EndComp
Wire Wire Line
	1450 1450 1750 1450
Wire Wire Line
	1750 1550 1750 1450
Connection ~ 1750 1450
Wire Wire Line
	1750 1450 2050 1450
Wire Wire Line
	1450 1550 1475 1550
$Comp
L power:GND #PWR03
U 1 1 61553290
P 1475 1800
F 0 "#PWR03" H 1475 1550 50  0001 C CNN
F 1 "GND" H 1480 1627 50  0000 C CNN
F 2 "" H 1475 1800 50  0001 C CNN
F 3 "" H 1475 1800 50  0001 C CNN
	1    1475 1800
	1    0    0    -1  
$EndComp
$Comp
L power:GND #PWR04
U 1 1 615533ED
P 1750 1800
F 0 "#PWR04" H 1750 1550 50  0001 C CNN
F 1 "GND" H 1755 1627 50  0000 C CNN
F 2 "" H 1750 1800 50  0001 C CNN
F 3 "" H 1750 1800 50  0001 C CNN
	1    1750 1800
	1    0    0    -1  
$EndComp
$Comp
L power:GND #PWR05
U 1 1 615536A0
P 2350 1800
F 0 "#PWR05" H 2350 1550 50  0001 C CNN
F 1 "GND" H 2355 1627 50  0000 C CNN
F 2 "" H 2350 1800 50  0001 C CNN
F 3 "" H 2350 1800 50  0001 C CNN
	1    2350 1800
	1    0    0    -1  
$EndComp
Wire Wire Line
	1475 1550 1475 1800
Wire Wire Line
	1750 1750 1750 1800
$Comp
L Device:CP1_Small C2
U 1 1 61553EB6
P 2775 1650
F 0 "C2" H 2866 1696 50  0000 L CNN
F 1 "10u" H 2866 1605 50  0000 L CNN
F 2 "Capacitor_SMD:C_0805_2012Metric_Pad1.18x1.45mm_HandSolder" H 2775 1650 50  0001 C CNN
F 3 "~" H 2775 1650 50  0001 C CNN
	1    2775 1650
	1    0    0    -1  
$EndComp
Wire Wire Line
	2650 1450 2775 1450
Wire Wire Line
	2775 1450 2775 1550
Wire Wire Line
	2350 1800 2350 1750
$Comp
L power:GND #PWR06
U 1 1 61554621
P 2775 1800
F 0 "#PWR06" H 2775 1550 50  0001 C CNN
F 1 "GND" H 2780 1627 50  0000 C CNN
F 2 "" H 2775 1800 50  0001 C CNN
F 3 "" H 2775 1800 50  0001 C CNN
	1    2775 1800
	1    0    0    -1  
$EndComp
Wire Wire Line
	2775 1800 2775 1750
Wire Wire Line
	2775 1450 3125 1450
Wire Wire Line
	3125 1450 3125 1425
Connection ~ 2775 1450
$Comp
L power:+12V #PWR02
U 1 1 61554D7D
P 3125 1425
F 0 "#PWR02" H 3125 1275 50  0001 C CNN
F 1 "+12V" H 3140 1598 50  0000 C CNN
F 2 "" H 3125 1425 50  0001 C CNN
F 3 "" H 3125 1425 50  0001 C CNN
	1    3125 1425
	1    0    0    -1  
$EndComp
$Comp
L Connector:Conn_01x02_Male J2
U 1 1 615575EB
P 1950 2800
F 0 "J2" H 2025 2900 50  0000 C CNN
F 1 "FAN 12V/90mA" V 1900 2750 50  0000 C CNN
F 2 "Connector_PinHeader_2.54mm:PinHeader_1x02_P2.54mm_Vertical" H 1950 2800 50  0001 C CNN
F 3 "~" H 1950 2800 50  0001 C CNN
	1    1950 2800
	1    0    0    -1  
$EndComp
Wire Wire Line
	2150 2800 2300 2800
Wire Wire Line
	2300 2800 2300 2700
$Comp
L power:+12V #PWR08
U 1 1 61557FCE
P 2300 2650
F 0 "#PWR08" H 2300 2500 50  0001 C CNN
F 1 "+12V" H 2315 2823 50  0000 C CNN
F 2 "" H 2300 2650 50  0001 C CNN
F 3 "" H 2300 2650 50  0001 C CNN
	1    2300 2650
	1    0    0    -1  
$EndComp
$Comp
L power:GND #PWR010
U 1 1 61558427
P 2300 3000
F 0 "#PWR010" H 2300 2750 50  0001 C CNN
F 1 "GND" H 2305 2827 50  0000 C CNN
F 2 "" H 2300 3000 50  0001 C CNN
F 3 "" H 2300 3000 50  0001 C CNN
	1    2300 3000
	1    0    0    -1  
$EndComp
Wire Wire Line
	2300 3000 2300 2975
Wire Wire Line
	2300 2900 2150 2900
$Comp
L Device:D_Schottky_Small D1
U 1 1 615593DD
P 2475 2850
F 0 "D1" V 2429 2920 50  0000 L CNN
F 1 "BAT54WS-TP" V 2520 2920 50  0000 L CNN
F 2 "Diode_SMD:D_SOD-323_HandSoldering" V 2475 2850 50  0001 C CNN
F 3 "~" V 2475 2850 50  0001 C CNN
	1    2475 2850
	0    1    1    0   
$EndComp
Wire Wire Line
	2475 2750 2475 2700
Wire Wire Line
	2475 2700 2300 2700
Connection ~ 2300 2700
Wire Wire Line
	2300 2700 2300 2650
Wire Wire Line
	2475 2950 2475 2975
Wire Wire Line
	2475 2975 2300 2975
Connection ~ 2300 2975
Wire Wire Line
	2300 2975 2300 2900
$Comp
L Amplifier_Operational:LM358 U2
U 1 1 6155AA82
P 6350 1725
F 0 "U2" H 6350 2092 50  0000 C CNN
F 1 "LM358" H 6350 2001 50  0000 C CNN
F 2 "Package_SO:SOP-8_3.9x4.9mm_P1.27mm" H 6350 1725 50  0001 C CNN
F 3 "http://www.ti.com/lit/ds/symlink/lm2904-n.pdf" H 6350 1725 50  0001 C CNN
	1    6350 1725
	1    0    0    -1  
$EndComp
$Comp
L Amplifier_Operational:LM358 U2
U 2 1 6155B930
P 5725 2650
F 0 "U2" H 5875 2850 50  0000 C CNN
F 1 "LM358" H 5925 2775 50  0000 C CNN
F 2 "Package_SO:SOP-8_3.9x4.9mm_P1.27mm" H 5725 2650 50  0001 C CNN
F 3 "http://www.ti.com/lit/ds/symlink/lm2904-n.pdf" H 5725 2650 50  0001 C CNN
	2    5725 2650
	1    0    0    -1  
$EndComp
$Comp
L Amplifier_Operational:LM358 U2
U 3 1 6155C9B6
P 4125 2200
F 0 "U2" H 4083 2246 50  0000 L CNN
F 1 "LM358" H 4083 2155 50  0000 L CNN
F 2 "Package_SO:SOP-8_3.9x4.9mm_P1.27mm" H 4125 2200 50  0001 C CNN
F 3 "http://www.ti.com/lit/ds/symlink/lm2904-n.pdf" H 4125 2200 50  0001 C CNN
	3    4125 2200
	1    0    0    -1  
$EndComp
$Comp
L Reference_Voltage:TL431DBZ U3
U 1 1 6155E92A
P 1650 4450
F 0 "U3" V 1696 4381 50  0000 R CNN
F 1 "TL431DBZ" V 1575 4875 50  0000 R CNN
F 2 "Package_TO_SOT_SMD:SOT-23" H 1650 4300 50  0001 C CIN
F 3 "http://www.ti.com/lit/ds/symlink/tl431.pdf" H 1650 4450 50  0001 C CIN
	1    1650 4450
	0    1    -1   0   
$EndComp
$Comp
L Device:D_Zener_Small D2
U 1 1 6155F56E
P 1275 4975
F 0 "D2" V 1229 5045 50  0000 L CNN
F 1 "2v4" V 1320 5045 50  0000 L CNN
F 2 "Diode_SMD:D_MiniMELF_Handsoldering" V 1275 4975 50  0001 C CNN
F 3 "~" V 1275 4975 50  0001 C CNN
	1    1275 4975
	0    1    1    0   
$EndComp
$Comp
L Device:R_Small R7
U 1 1 61564DD4
P 1275 3950
F 0 "R7" H 1334 3996 50  0000 L CNN
F 1 "4k7" H 1334 3905 50  0000 L CNN
F 2 "Resistor_SMD:R_0603_1608Metric_Pad0.98x0.95mm_HandSolder" H 1275 3950 50  0001 C CNN
F 3 "~" H 1275 3950 50  0001 C CNN
	1    1275 3950
	1    0    0    -1  
$EndComp
Wire Wire Line
	1275 4050 1275 4825
$Comp
L power:GND #PWR015
U 1 1 61567331
P 1275 5125
F 0 "#PWR015" H 1275 4875 50  0001 C CNN
F 1 "GND" H 1280 4952 50  0000 C CNN
F 2 "" H 1275 5125 50  0001 C CNN
F 3 "" H 1275 5125 50  0001 C CNN
	1    1275 5125
	1    0    0    -1  
$EndComp
Wire Wire Line
	1275 5125 1275 5075
$Comp
L power:+12V #PWR012
U 1 1 61567D0A
P 1275 3700
F 0 "#PWR012" H 1275 3550 50  0001 C CNN
F 1 "+12V" H 1290 3873 50  0000 C CNN
F 2 "" H 1275 3700 50  0001 C CNN
F 3 "" H 1275 3700 50  0001 C CNN
	1    1275 3700
	1    0    0    -1  
$EndComp
Wire Wire Line
	1275 3700 1275 3775
Connection ~ 1275 4825
Wire Wire Line
	1275 4825 1275 4875
Wire Wire Line
	1650 4825 1650 4550
Wire Wire Line
	1275 4825 1650 4825
$Comp
L Device:R_Small R8
U 1 1 6156A69F
P 1650 3950
F 0 "R8" H 1709 3996 50  0000 L CNN
F 1 "680" H 1709 3905 50  0000 L CNN
F 2 "Resistor_SMD:R_0603_1608Metric_Pad0.98x0.95mm_HandSolder" H 1650 3950 50  0001 C CNN
F 3 "~" H 1650 3950 50  0001 C CNN
	1    1650 3950
	1    0    0    -1  
$EndComp
Wire Wire Line
	1275 3775 1650 3775
Wire Wire Line
	1650 3775 1650 3850
Connection ~ 1275 3775
Wire Wire Line
	1275 3775 1275 3850
Wire Wire Line
	1650 4050 1650 4125
$Comp
L Device:R_Small R9
U 1 1 6156CE79
P 2125 4275
F 0 "R9" H 2184 4321 50  0000 L CNN
F 1 "6k2" H 2184 4230 50  0000 L CNN
F 2 "Resistor_SMD:R_0603_1608Metric_Pad0.98x0.95mm_HandSolder" H 2125 4275 50  0001 C CNN
F 3 "~" H 2125 4275 50  0001 C CNN
	1    2125 4275
	1    0    0    -1  
$EndComp
Wire Wire Line
	2125 4375 2125 4450
Wire Wire Line
	2125 4450 1750 4450
Connection ~ 2125 4450
Wire Wire Line
	2125 4450 2125 4550
$Comp
L Device:R_Small R11
U 1 1 6156E644
P 2125 4650
F 0 "R11" H 2184 4696 50  0000 L CNN
F 1 "6k2" H 2184 4605 50  0000 L CNN
F 2 "Resistor_SMD:R_0603_1608Metric_Pad0.98x0.95mm_HandSolder" H 2125 4650 50  0001 C CNN
F 3 "~" H 2125 4650 50  0001 C CNN
	1    2125 4650
	1    0    0    -1  
$EndComp
Wire Wire Line
	1650 4825 2125 4825
Wire Wire Line
	2125 4825 2125 4750
Connection ~ 1650 4825
Wire Wire Line
	2125 4175 2125 4125
Wire Wire Line
	2125 4125 1650 4125
Connection ~ 1650 4125
Wire Wire Line
	1650 4125 1650 4350
Connection ~ 2125 4125
$Comp
L Connector:Conn_01x03_Male J4
U 1 1 6157676E
P 3375 4500
F 0 "J4" H 3347 4432 50  0000 R CNN
F 1 "I_LIMIT" H 3347 4523 50  0000 R CNN
F 2 "Connector_PinHeader_2.54mm:PinHeader_1x03_P2.54mm_Vertical" H 3375 4500 50  0001 C CNN
F 3 "~" H 3375 4500 50  0001 C CNN
	1    3375 4500
	-1   0    0    1   
$EndComp
Wire Wire Line
	3100 4125 3100 4400
Wire Wire Line
	3100 4400 3175 4400
Wire Wire Line
	2125 4125 3100 4125
Wire Wire Line
	3175 4600 3100 4600
Wire Wire Line
	3100 4600 3100 4825
Wire Wire Line
	3100 4825 2125 4825
Connection ~ 2125 4825
Text GLabel 2950 4500 0    50   Output ~ 0
I_LIMIT
Wire Wire Line
	2950 4500 3175 4500
$Comp
L power:+12V #PWR07
U 1 1 6158A6F9
P 4025 1850
F 0 "#PWR07" H 4025 1700 50  0001 C CNN
F 1 "+12V" H 4040 2023 50  0000 C CNN
F 2 "" H 4025 1850 50  0001 C CNN
F 3 "" H 4025 1850 50  0001 C CNN
	1    4025 1850
	1    0    0    -1  
$EndComp
$Comp
L power:GND #PWR011
U 1 1 6158AAC9
P 4025 2575
F 0 "#PWR011" H 4025 2325 50  0001 C CNN
F 1 "GND" H 4030 2402 50  0000 C CNN
F 2 "" H 4025 2575 50  0001 C CNN
F 3 "" H 4025 2575 50  0001 C CNN
	1    4025 2575
	1    0    0    -1  
$EndComp
Wire Wire Line
	4025 2575 4025 2500
Wire Wire Line
	4025 1900 4025 1875
$Comp
L Device:CP1_Small C3
U 1 1 6158C97E
P 4400 2025
F 0 "C3" H 4491 2071 50  0000 L CNN
F 1 "1u" H 4491 1980 50  0000 L CNN
F 2 "Capacitor_SMD:C_0805_2012Metric_Pad1.18x1.45mm_HandSolder" H 4400 2025 50  0001 C CNN
F 3 "~" H 4400 2025 50  0001 C CNN
	1    4400 2025
	1    0    0    -1  
$EndComp
Connection ~ 4025 1875
Wire Wire Line
	4025 1875 4025 1850
Wire Wire Line
	4400 1875 4400 1925
Wire Wire Line
	4025 1875 4400 1875
$Comp
L power:GND #PWR09
U 1 1 6159018F
P 4400 2200
F 0 "#PWR09" H 4400 1950 50  0001 C CNN
F 1 "GND" H 4405 2027 50  0000 C CNN
F 2 "" H 4400 2200 50  0001 C CNN
F 3 "" H 4400 2200 50  0001 C CNN
	1    4400 2200
	1    0    0    -1  
$EndComp
Wire Wire Line
	4400 2200 4400 2125
Text GLabel 5275 2550 0    50   Input ~ 0
I_LIMIT
Wire Wire Line
	5275 2550 5425 2550
Text GLabel 5275 2750 0    50   Input ~ 0
I_SENS
Wire Wire Line
	5275 2750 5425 2750
$Comp
L Device:R_Small R10
U 1 1 61594CF8
P 6300 2650
F 0 "R10" V 6104 2650 50  0000 C CNN
F 1 "100" V 6195 2650 50  0000 C CNN
F 2 "Resistor_SMD:R_0603_1608Metric_Pad0.98x0.95mm_HandSolder" H 6300 2650 50  0001 C CNN
F 3 "~" H 6300 2650 50  0001 C CNN
	1    6300 2650
	0    1    1    0   
$EndComp
Wire Wire Line
	6200 2650 6025 2650
Wire Wire Line
	6400 2650 6450 2650
$Comp
L Device:CP1_Small C4
U 1 1 61597161
P 6450 2800
F 0 "C4" H 6541 2846 50  0000 L CNN
F 1 "10u" H 6541 2755 50  0000 L CNN
F 2 "Capacitor_SMD:C_0805_2012Metric_Pad1.18x1.45mm_HandSolder" H 6450 2800 50  0001 C CNN
F 3 "~" H 6450 2800 50  0001 C CNN
	1    6450 2800
	1    0    0    -1  
$EndComp
Wire Wire Line
	6450 2700 6450 2650
Connection ~ 6450 2650
$Comp
L power:GND #PWR014
U 1 1 6159869E
P 6450 2950
F 0 "#PWR014" H 6450 2700 50  0001 C CNN
F 1 "GND" H 6455 2777 50  0000 C CNN
F 2 "" H 6450 2950 50  0001 C CNN
F 3 "" H 6450 2950 50  0001 C CNN
	1    6450 2950
	1    0    0    -1  
$EndComp
Wire Wire Line
	6450 2950 6450 2900
Wire Wire Line
	6450 2650 6725 2650
Text GLabel 6725 2650 2    50   Output ~ 0
MOSFET_G
$Comp
L Device:R_Small R3
U 1 1 615A156F
P 5625 1375
F 0 "R3" V 5429 1375 50  0000 C CNN
F 1 "10k/1%" V 5520 1375 50  0000 C CNN
F 2 "Resistor_SMD:R_0603_1608Metric_Pad0.98x0.95mm_HandSolder" H 5625 1375 50  0001 C CNN
F 3 "~" H 5625 1375 50  0001 C CNN
	1    5625 1375
	0    1    1    0   
$EndComp
$Comp
L Device:R_Small R4
U 1 1 615A1D55
P 6350 1375
F 0 "R4" V 6154 1375 50  0000 C CNN
F 1 "10k/1%" V 6245 1375 50  0000 C CNN
F 2 "Resistor_SMD:R_0603_1608Metric_Pad0.98x0.95mm_HandSolder" H 6350 1375 50  0001 C CNN
F 3 "~" H 6350 1375 50  0001 C CNN
	1    6350 1375
	0    1    1    0   
$EndComp
Wire Wire Line
	5725 1375 5950 1375
Wire Wire Line
	6450 1375 6850 1375
Wire Wire Line
	1275 4825 1175 4825
Text GLabel 1175 4825 0    50   Output ~ 0
2V4
Text GLabel 6850 1375 2    50   Input ~ 0
2V4
Wire Wire Line
	6050 1625 5950 1625
Wire Wire Line
	5950 1625 5950 1375
Connection ~ 5950 1375
Wire Wire Line
	5950 1375 6250 1375
Wire Wire Line
	5525 1375 5400 1375
Text GLabel 5400 1375 0    50   Input ~ 0
I_SENSE_+
Text GLabel 5400 2000 0    50   Input ~ 0
I_SENSE_-
$Comp
L Device:R_Small R5
U 1 1 615AEEAD
P 5625 2000
F 0 "R5" V 5429 2000 50  0000 C CNN
F 1 "10k/1%" V 5520 2000 50  0000 C CNN
F 2 "Resistor_SMD:R_0603_1608Metric_Pad0.98x0.95mm_HandSolder" H 5625 2000 50  0001 C CNN
F 3 "~" H 5625 2000 50  0001 C CNN
	1    5625 2000
	0    1    1    0   
$EndComp
$Comp
L Device:R_Small R6
U 1 1 615AF2F2
P 6350 2000
F 0 "R6" V 6400 2125 50  0000 C CNN
F 1 "10k/1%" V 6475 2000 50  0000 C CNN
F 2 "Resistor_SMD:R_0603_1608Metric_Pad0.98x0.95mm_HandSolder" H 6350 2000 50  0001 C CNN
F 3 "~" H 6350 2000 50  0001 C CNN
	1    6350 2000
	0    1    1    0   
$EndComp
Wire Wire Line
	6250 2000 5950 2000
Wire Wire Line
	6050 1825 5950 1825
Wire Wire Line
	5950 1825 5950 2000
Connection ~ 5950 2000
Wire Wire Line
	5950 2000 5725 2000
Wire Wire Line
	6450 2000 6750 2000
Wire Wire Line
	6750 2000 6750 1725
Wire Wire Line
	6750 1725 6650 1725
Wire Wire Line
	5400 2000 5525 2000
Text GLabel 6850 1725 2    50   Output ~ 0
I_SENS
Wire Wire Line
	6850 1725 6750 1725
Connection ~ 6750 1725
$Comp
L Device:R_Small R2
U 1 1 615BF1F6
P 5525 3950
F 0 "R2" H 5466 3904 50  0000 R CNN
F 1 "1R/25W" H 5466 3995 50  0000 R CNN
F 2 "" H 5525 3950 50  0001 C CNN
F 3 "~" H 5525 3950 50  0001 C CNN
	1    5525 3950
	-1   0    0    1   
$EndComp
$Comp
L Transistor_FET:IRLZ44N Q1
U 1 1 615C4339
P 5425 4425
F 0 "Q1" H 5629 4471 50  0000 L CNN
F 1 "IRFZ44PBF" H 5629 4380 50  0000 L CNN
F 2 "" H 5675 4350 50  0001 L CIN
F 3 "http://www.irf.com/product-info/datasheets/data/irlz44n.pdf" H 5425 4425 50  0001 L CNN
	1    5425 4425
	1    0    0    -1  
$EndComp
Wire Wire Line
	5525 4225 5525 4175
$Comp
L power:GND #PWR013
U 1 1 615C6BC8
P 5525 4850
F 0 "#PWR013" H 5525 4600 50  0001 C CNN
F 1 "GND" H 5530 4677 50  0000 C CNN
F 2 "" H 5525 4850 50  0001 C CNN
F 3 "" H 5525 4850 50  0001 C CNN
	1    5525 4850
	1    0    0    -1  
$EndComp
Wire Wire Line
	5525 4850 5525 4800
Wire Wire Line
	5525 3850 5525 3775
Text GLabel 4875 4425 0    50   Input ~ 0
MOSFET_G
Wire Wire Line
	4875 4425 5075 4425
$Comp
L Connector:Screw_Terminal_01x02 J3
U 1 1 615D1758
P 7150 3575
F 0 "J3" H 7230 3567 50  0000 L CNN
F 1 "DUT" H 7230 3476 50  0000 L CNN
F 2 "TerminalBlock:TerminalBlock_bornier-2_P5.08mm" H 7150 3575 50  0001 C CNN
F 3 "~" H 7150 3575 50  0001 C CNN
	1    7150 3575
	1    0    0    -1  
$EndComp
Wire Wire Line
	5525 3575 6950 3575
Wire Wire Line
	6950 4800 5525 4800
Connection ~ 5525 4800
Wire Wire Line
	5525 4800 5525 4625
Wire Wire Line
	5525 3575 4850 3575
Connection ~ 5525 3575
Wire Wire Line
	5525 4175 4875 4175
Connection ~ 5525 4175
Wire Wire Line
	5525 4175 5525 4050
Text GLabel 4850 3575 0    50   Input ~ 0
I_SENSE_+
Text GLabel 4875 4175 0    50   Input ~ 0
I_SENSE_-
$Comp
L Mechanical:MountingHole_Pad H3
U 1 1 615DEF42
P 4825 4800
F 0 "H3" V 5062 4803 50  0000 C CNN
F 1 "DUT-" V 4971 4803 50  0000 C CNN
F 2 "Connector_Pin:Pin_D1.4mm_L8.5mm_W2.8mm_FlatFork" H 4825 4800 50  0001 C CNN
F 3 "~" H 4825 4800 50  0001 C CNN
	1    4825 4800
	0    -1   -1   0   
$EndComp
$Comp
L Mechanical:MountingHole_Pad H1
U 1 1 615DFD65
P 4825 3775
F 0 "H1" V 4775 3975 50  0000 C CNN
F 1 "DUT+" V 4675 3950 50  0000 C CNN
F 2 "Connector_Pin:Pin_D1.4mm_L8.5mm_W2.8mm_FlatFork" H 4825 3775 50  0001 C CNN
F 3 "~" H 4825 3775 50  0001 C CNN
	1    4825 3775
	0    -1   -1   0   
$EndComp
Wire Wire Line
	4925 3775 5525 3775
Connection ~ 5525 3775
Wire Wire Line
	5525 3775 5525 3575
$Comp
L Mechanical:MountingHole_Pad H2
U 1 1 615E5F21
P 6575 4175
F 0 "H2" V 6525 4375 50  0000 C CNN
F 1 "I_SENSE" V 6675 4350 50  0000 C CNN
F 2 "Connector_Pin:Pin_D1.0mm_L10.0mm" H 6575 4175 50  0001 C CNN
F 3 "~" H 6575 4175 50  0001 C CNN
	1    6575 4175
	0    1    1    0   
$EndComp
Wire Wire Line
	6475 4175 5525 4175
Wire Wire Line
	4925 4800 5525 4800
Text Notes 1475 2425 0    50   ~ 0
 TME: EE50101S2-999-A  12V / 0.065A 
Text Notes 1525 2325 0    50   ~ 0
FAN
Text Notes 1400 1050 0    50   ~ 0
SUPPLY IN: max 16V OUT: 12V/100mA
Wire Notes Line
	850  2175 850  850 
Wire Notes Line
	850  2200 3650 2200
Text Notes 5000 975  0    50   ~ 0
CURRENT REGULATION
Wire Notes Line
	850  3275 7425 3275
Wire Notes Line
	850  850  7425 850 
Wire Notes Line
	3650 850  3650 3275
Text Notes 2025 3500 0    50   ~ 0
CURRENT SETTING
Wire Notes Line
	3850 5425 3850 3275
Wire Notes Line
	850  2200 850  5425
Wire Wire Line
	6950 3675 6950 4800
Wire Notes Line
	7425 850  7425 5425
Wire Notes Line
	850  5425 7425 5425
Text Notes 5650 3825 0    50   ~ 0
on radiator
Wire Notes Line
	6125 3700 6125 4700
Wire Notes Line
	6125 4700 5200 4700
Wire Notes Line
	5200 4700 5200 3700
Wire Notes Line
	5200 3700 6125 3700
$Comp
L Mechanical:MountingHole_Pad H4
U 1 1 6170ABD1
P 5075 4575
F 0 "H4" V 5025 4775 50  0000 C CNN
F 1 "MOSFET_G" V 5175 4750 50  0000 C CNN
F 2 "Connector_Pin:Pin_D1.0mm_L10.0mm" H 5075 4575 50  0001 C CNN
F 3 "~" H 5075 4575 50  0001 C CNN
	1    5075 4575
	-1   0    0    1   
$EndComp
Wire Wire Line
	5075 4475 5075 4425
Connection ~ 5075 4425
Wire Wire Line
	5075 4425 5225 4425
$Comp
L Mechanical:MountingHole_Pad H5
U 1 1 615ECC86
P 1425 5700
F 0 "H5" V 1375 5900 50  0000 C CNN
F 1 "mount" V 1275 5875 50  0001 C CNN
F 2 "MountingHole:MountingHole_2.2mm_M2_Pad" H 1425 5700 50  0001 C CNN
F 3 "~" H 1425 5700 50  0001 C CNN
	1    1425 5700
	0    -1   -1   0   
$EndComp
$Comp
L Mechanical:MountingHole_Pad H6
U 1 1 615ED37E
P 1425 5900
F 0 "H6" V 1375 6100 50  0000 C CNN
F 1 "mount" V 1275 6075 50  0001 C CNN
F 2 "MountingHole:MountingHole_2.2mm_M2_Pad" H 1425 5900 50  0001 C CNN
F 3 "~" H 1425 5900 50  0001 C CNN
	1    1425 5900
	0    -1   -1   0   
$EndComp
$Comp
L Mechanical:MountingHole_Pad H7
U 1 1 615ED608
P 1425 6100
F 0 "H7" V 1375 6300 50  0000 C CNN
F 1 "mount" V 1275 6275 50  0001 C CNN
F 2 "MountingHole:MountingHole_2.2mm_M2_Pad" H 1425 6100 50  0001 C CNN
F 3 "~" H 1425 6100 50  0001 C CNN
	1    1425 6100
	0    -1   -1   0   
$EndComp
$Comp
L Mechanical:MountingHole_Pad H8
U 1 1 615ED7F5
P 1425 6300
F 0 "H8" V 1375 6500 50  0000 C CNN
F 1 "mount" V 1275 6475 50  0001 C CNN
F 2 "MountingHole:MountingHole_2.2mm_M2_Pad" H 1425 6300 50  0001 C CNN
F 3 "~" H 1425 6300 50  0001 C CNN
	1    1425 6300
	0    -1   -1   0   
$EndComp
Text Notes 1075 5600 0    50   ~ 0
MOUNTING HOLES
$EndSCHEMATC
